<svg width="9" height="12" viewBox="0 0 9 12" fill="none" xmlns="http://www.w3.org/2000/svg">
<path d="M9 1.86852C9 1.06982 8.10985 0.59343 7.4453 1.03647L1.24808 5.16795C0.654343 5.56377 0.654342 6.43623 1.24808 6.83205L7.4453 10.9635C8.10985 11.4066 9 10.9302 9 10.1315V1.86852Z" fill="white"/>
</svg>
