<svg width="18" height="18" viewBox="0 0 18 18" fill="none" xmlns="http://www.w3.org/2000/svg">
<path d="M1 1L9 9.10088M17 17L9 9.10088M9 9.10088L17 1M9 9.10088L1 17" stroke="white" stroke-width="2" stroke-linecap="round"/>
</svg>
