<svg width="11" height="22" viewBox="0 0 11 22" fill="none" xmlns="http://www.w3.org/2000/svg">
<path fill-rule="evenodd" clip-rule="evenodd" d="M10.1523 0.0254964C10.1523 1.28438 10.1523 2.51859 10.1523 3.7847C9.86106 3.7847 9.57883 3.7847 9.296 3.7847C8.77367 3.7847 8.25195 3.78169 7.73022 3.7853C7.15554 3.79011 6.77583 4.08919 6.74995 4.65244C6.71325 5.46541 6.74093 6.2802 6.74093 7.12447C7.90112 7.12447 9.04808 7.12447 10.2179 7.12447C10.0825 8.43511 9.95192 9.71204 9.81833 11.0155C8.78511 11.0155 7.77054 11.0155 6.7331 11.0155C6.7331 14.6904 6.7331 18.3365 6.7331 22C5.20102 22 3.69361 22 2.15671 22C2.15671 18.3395 2.15671 14.6922 2.15671 11.0191C1.42497 11.0191 0.72091 11.0191 0 11.0191C0 9.71866 0 8.44413 0 7.1335C0.709476 7.1335 1.41775 7.1335 2.15792 7.1335C2.15792 7.00051 2.15731 6.90302 2.15852 6.80493C2.16754 5.89628 2.12602 4.98461 2.19703 4.08136C2.31257 2.60825 2.89868 1.37224 4.23158 0.594762C4.91639 0.194591 5.6722 0.0242931 6.45208 0.0104526C7.64597 -0.0118126 8.84107 0.00804553 10.0344 0.0104526C10.0681 0.0104526 10.1 0.0182752 10.1523 0.0254964Z" fill="#009CB4"/>
</svg>
