<svg width="22" height="22" viewBox="0 0 22 22" fill="none" xmlns="http://www.w3.org/2000/svg">
<path d="M15.9287 0H6.07107C2.72349 0 0 2.72362 0 6.07121V15.9288C0 19.2765 2.72349 22 6.07107 22H15.9287C19.2765 22 22 19.2764 22 15.9288V6.07121C22.0001 2.72362 19.2765 0 15.9287 0ZM20.0482 15.9288C20.0482 18.2002 18.2002 20.0481 15.9288 20.0481H6.07107C3.79979 20.0482 1.95195 18.2002 1.95195 15.9288V6.07121C1.95195 3.79992 3.79979 1.95195 6.07107 1.95195H15.9287C18.2001 1.95195 20.0481 3.79992 20.0481 6.07121V15.9288H20.0482Z" fill="#009CB4"/>
<path d="M11.0009 5.33105C7.87503 5.33105 5.33203 7.87405 5.33203 10.9999C5.33203 14.1256 7.87503 16.6685 11.0009 16.6685C14.1267 16.6685 16.6697 14.1256 16.6697 10.9999C16.6697 7.87405 14.1267 5.33105 11.0009 5.33105ZM11.0009 14.7164C8.95146 14.7164 7.28398 13.0492 7.28398 10.9998C7.28398 8.95022 8.95133 7.28287 11.0009 7.28287C13.0504 7.28287 14.7178 8.95022 14.7178 10.9998C14.7178 13.0492 13.0503 14.7164 11.0009 14.7164Z" fill="#009CB4"/>
<path d="M16.906 3.67627C16.53 3.67627 16.1605 3.82852 15.8949 4.09529C15.628 4.36075 15.4746 4.73032 15.4746 5.1077C15.4746 5.4839 15.6282 5.85334 15.8949 6.12011C16.1604 6.38557 16.53 6.53912 16.906 6.53912C17.2834 6.53912 17.6517 6.38557 17.9184 6.12011C18.1852 5.85334 18.3375 5.48377 18.3375 5.1077C18.3375 4.73032 18.1852 4.36075 17.9184 4.09529C17.653 3.82852 17.2834 3.67627 16.906 3.67627Z" fill="#009CB4"/>
</svg>
