<svg width="32" height="32" viewBox="0 0 32 32" fill="none" xmlns="http://www.w3.org/2000/svg">
<g clip-path="url(#clip0)">
<path d="M4.89491 3.47214C4.89405 3.47214 4.89308 3.47214 4.89222 3.47214C4.58957 3.47214 4.3049 3.59012 4.08995 3.80453C3.87263 4.02131 3.75293 4.30996 3.75293 4.61725V21.7879C3.75293 22.4176 4.26719 22.9311 4.89944 22.9327C7.56482 22.9391 12.0304 23.4946 15.111 26.7184V8.74882C15.111 8.53537 15.0565 8.33486 14.9536 8.16893C12.4252 4.09706 7.56633 3.47839 4.89491 3.47214Z" fill="#EFA941"/>
<path d="M28.2467 21.7879V4.61711C28.2467 4.30982 28.127 4.02117 27.9096 3.80439C27.6947 3.58998 27.4098 3.472 27.1075 3.472C27.1065 3.472 27.1055 3.472 27.1047 3.472C24.4334 3.47836 19.5745 4.09703 17.046 8.1689C16.9431 8.33483 16.8887 8.53534 16.8887 8.74879V26.7183C19.9693 23.4945 24.4349 22.9389 27.1003 22.9326C27.7324 22.931 28.2467 22.4175 28.2467 21.7879Z" fill="#EFA941"/>
<path d="M30.8554 7.43203H30.0252V21.788C30.0252 23.3957 28.7153 24.7066 27.1052 24.7106C24.8444 24.716 21.1166 25.158 18.4766 27.6567C23.0426 26.5388 27.8559 27.2655 30.5991 27.8907C30.9416 27.9687 31.2956 27.8881 31.57 27.6693C31.8435 27.4512 32.0003 27.125 32.0003 26.775V8.57692C32.0004 7.94565 31.4867 7.43203 30.8554 7.43203Z" fill="#EFA941"/>
<path d="M1.97517 21.788V7.43203H1.14489C0.513726 7.43203 0 7.94565 0 8.57692V26.7746C0 27.1248 0.156876 27.4508 0.430331 27.669C0.704541 27.8876 1.05816 27.9686 1.40122 27.8903C4.14439 27.2651 8.95788 26.5385 13.5237 27.6564C10.8837 25.1578 7.15596 24.7159 4.89515 24.7105C3.28513 24.7066 1.97517 23.3957 1.97517 21.788Z" fill="#EFA941"/>
</g>
<defs>
<clipPath id="clip0">
<rect width="32" height="32" fill="white"/>
</clipPath>
</defs>
</svg>
